{
  "images" : [
    {
      "idiom" : "universal",
      "scale" : "1x"
    },
    {
      "idiom" : "universal",
      "scale" : "2x"
    },
    {
      "idiom" : "universal",
      "scale" : "3x",
      "filename" : "Tree-footpath-morning-sun-and-clouds_640x960_iPhone_4_wallpaper.jpg"
    }
  ],
  "info" : {
    "version" : 1,
    "author" : "xcode"
  }
}